Basic Data Visualization
…
Lets use our first graph to answer a question: Do countries with higher income levels have a longer life expectancy than countries with low income levels? You probably already have an answer, but try to make your answer precise. What does the relationship between income levels and life expectancy look like? Is it positive? Negative? Linear? Nonlinear?

The Gapminder Data

You can test your answers using data from Gapminder. Gapminder is a foundation that works on making data on development broadly accessible (https://www.gapminder.org/). Gapminder has data on GDP per capita data taken from the Penn World Table (PWT), a database with information on relative levels of income, output, input, and productivity (https://www.rug.nl/ggdc/productivity/pwt/?lang=en). pwt is a greate database for research on econometric growth.

R has a custom-designed package to access the Gapminder data on GDP per capita and life expectancy. Install the gapminder package as we did above and load it by writing the following command:

library(gapminder)

Loading this package gives us access to the gapminder data frame. A data frame is a rectangular collection of observations (in the rows) and variables (in the columns). gapminder contains observations collected by the Gapminder Foundation on GDP per capita, life expectancy, and population in a selection of countries for different years. Print the data frame by writing:

gapminder

## # A tibble: 1,704 x 6
##    country     continent  year lifeExp      pop gdpPercap
##    <fct>       <fct>     <int>   <dbl>    <int>     <dbl>
##  1 Afghanistan Asia       1952    28.8  8425333      779.
##  2 Afghanistan Asia       1957    30.3  9240934      821.
##  3 Afghanistan Asia       1962    32.0 10267083      853.
##  4 Afghanistan Asia       1967    34.0 11537966      836.
##  5 Afghanistan Asia       1972    36.1 13079460      740.
##  6 Afghanistan Asia       1977    38.4 14880372      786.
##  7 Afghanistan Asia       1982    39.9 12881816      978.
##  8 Afghanistan Asia       1987    40.8 13867957      852.
##  9 Afghanistan Asia       1992    41.7 16317921      649.
## 10 Afghanistan Asia       1997    41.8 22227415      635.
## # ... with 1,694 more rows
…
